{
	"data": [{
		"relate": "\u8279",
		"content": "\u84dd",
		"count": "60"
	}, {
		"relate": "\u8279",
		"content": "\u8349",
		"count": "65"
	}, {
		"relate": "\u8279",
		"content": "\u8425",
		"count": "6"
	}, {
		"relate": "\u8279",
		"content": "\u82b1",
		"count": "6"
	}, {
		"relate": "\u8279",
		"content": "\u8335",
		"count": "5"
	}, {
		"relate": "\u8279",
		"content": "\u840c",
		"count": "20"
	}, {
		"relate": "\u7e9f",
		"content": "\u7eff",
		"count": "3"
	}, {
		"relate": "\u8279",
		"content": "\u82d1",
		"count": "2"
	}, {
		"relate": "\u8279",
		"content": "\u827a",
		"count": "2"
	}],
	"page": "2",
	"pageSize": "10",
	"totalPages": 10
}